{
    "key": "group_5dae21e265e47",
    "title": "Footer",
    "fields": [
        {
            "key": "field_5dae21e96bf5e",
            "label": "Newsletter",
            "name": "",
            "type": "tab",
            "instructions": "",
            "required": 0,
            "conditional_logic": 0,
            "wrapper": {
                "width": "",
                "class": "",
                "id": ""
            },
            "placement": "top",
            "endpoint": 0
        },
        {
            "key": "field_5dae22e56bf6a",
            "label": "Title",
            "name": "footer_newsletter_title",
            "type": "text",
            "instructions": "",
            "required": 1,
            "conditional_logic": 0,
            "wrapper": {
                "width": "",
                "class": "",
                "id": ""
            },
            "default_value": "",
            "placeholder": "",
            "prepend": "",
            "append": "",
            "maxlength": ""
        },
        {
            "key": "field_5dae22e86bf6b",
            "label": "Form",
            "name": "footer_newsletter_form",
            "type": "post_object",
            "instructions": "",
            "required": 1,
            "conditional_logic": 0,
            "wrapper": {
                "width": "",
                "class": "",
                "id": ""
            },
            "post_type": [
                "wpf-contact-forms"
            ],
            "taxonomy": "",
            "allow_null": 0,
            "multiple": 0,
            "return_format": "id",
            "ui": 1
        },
        {
            "key": "field_5dae21f06bf5f",
            "label": "Contact",
            "name": "",
            "type": "tab",
            "instructions": "",
            "required": 0,
            "conditional_logic": 0,
            "wrapper": {
                "width": "",
                "class": "",
                "id": ""
            },
            "placement": "top",
            "endpoint": 0
        },
        {
            "key": "field_5dae22496bf66",
            "label": "Text",
            "name": "footer_contact",
            "type": "wysiwyg",
            "instructions": "(available options from editor: Heading, Paragraph, Link)",
            "required": 1,
            "conditional_logic": 0,
            "wrapper": {
                "width": "",
                "class": "",
                "id": ""
            },
            "wpf_tinymce_low": 0,
            "default_value": "",
            "tabs": "all",
            "toolbar": "full",
            "media_upload": 0,
            "delay": 0
        },
        {
            "key": "field_5dae22156bf61",
            "label": "Bottom",
            "name": "",
            "type": "tab",
            "instructions": "",
            "required": 0,
            "conditional_logic": 0,
            "wrapper": {
                "width": "",
                "class": "",
                "id": ""
            },
            "placement": "top",
            "endpoint": 0
        },
        {
            "key": "field_5dae22b86bf67",
            "label": "Text",
            "name": "footer_bottom",
            "type": "wysiwyg",
            "instructions": "(available options from editor: Paragraph, Link)",
            "required": 1,
            "conditional_logic": 0,
            "wrapper": {
                "width": "",
                "class": "",
                "id": ""
            },
            "wpf_tinymce_low": 0,
            "default_value": "",
            "tabs": "all",
            "toolbar": "full",
            "media_upload": 0,
            "delay": 0
        },
        {
            "key": "field_5dae22196bf62",
            "label": "Social icons",
            "name": "",
            "type": "tab",
            "instructions": "",
            "required": 0,
            "conditional_logic": 0,
            "wrapper": {
                "width": "",
                "class": "",
                "id": ""
            },
            "placement": "top",
            "endpoint": 0
        },
        {
            "key": "field_5dae22226bf63",
            "label": "List",
            "name": "footer_socials",
            "type": "repeater",
            "instructions": "",
            "required": 1,
            "conditional_logic": 0,
            "wrapper": {
                "width": "",
                "class": "",
                "id": ""
            },
            "collapsed": "",
            "min": 0,
            "max": 0,
            "layout": "row",
            "button_label": "Add icon",
            "sub_fields": [
                {
                    "key": "field_5dae22326bf64",
                    "label": "Icon",
                    "name": "icon",
                    "type": "select",
                    "instructions": "",
                    "required": 1,
                    "conditional_logic": 0,
                    "wrapper": {
                        "width": "",
                        "class": "",
                        "id": ""
                    },
                    "choices": {
                        "arrow-small-down": "arrow-small-down",
                        "attachment": "attachment",
                        "building": "building",
                        "chart": "chart",
                        "city": "city",
                        "cloud": "cloud",
                        "cloud-connect": "cloud-connect",
                        "email": "email",
                        "handshake": "handshake",
                        "hexagon": "hexagon",
                        "image": "image",
                        "layers": "layers",
                        "loupe": "loupe",
                        "padlock": "padlock",
                        "people-circle": "people-circle",
                        "person": "person",
                        "plus": "plus",
                        "processor": "processor",
                        "social-facebook": "social-facebook",
                        "social-instagram": "social-instagram",
                        "social-twitter": "social-twitter",
                        "social-youtube": "social-youtube",
                        "sound": "sound",
                        "world": "world"
                    },
                    "default_value": [],
                    "allow_null": 0,
                    "multiple": 0,
                    "ui": 1,
                    "ajax": 0,
                    "return_format": "value",
                    "placeholder": ""
                },
                {
                    "key": "field_5dae223b6bf65",
                    "label": "Link",
                    "name": "url",
                    "type": "url",
                    "instructions": "",
                    "required": 1,
                    "conditional_logic": 0,
                    "wrapper": {
                        "width": "",
                        "class": "",
                        "id": ""
                    },
                    "default_value": "",
                    "placeholder": ""
                }
            ]
        }
    ],
    "location": [
        [
            {
                "param": "options_page",
                "operator": "==",
                "value": "options-footer"
            }
        ]
    ],
    "menu_order": 0,
    "position": "normal",
    "style": "default",
    "label_placement": "top",
    "instruction_placement": "label",
    "hide_on_screen": "",
    "active": 1,
    "description": "",
    "modified": 1571693449
}